{
	"info": {
		"_postman_id": "67113a9c-12fa-4ffc-9d2c-3eee82f3b857",
		"name": "endpointCollection",
		"schema": "https://schema.getpostman.com/json/collection/v2.1.0/collection.json",
		"_exporter_id": "9249926"
	},
	"item": [
		{
			"name": "GET/user/{id}",
			"request": {
				"method": "GET",
				"header": [],
				"url": {
					"raw": "http://localhost:9090/GET/user/1",
					"protocol": "http",
					"host": [
						"localhost"
					],
					"port": "9090",
					"path": [
						"GET",
						"user",
						"1"
					]
				}
			},
			"response": []
		},
		{
			"name": "POST/user",
			"request": {
				"method": "POST",
				"header": [],
				"body": {
					"mode": "raw",
					"raw": "{\r\n    \"birthDate\": \"11/09/1986\",\r\n  \"phoneNumber\": \"0674772106\",\r\n  \"name\": \"Jérémie\",\r\n  \"country\": \"France\"\r\n}",
					"options": {
						"raw": {
							"language": "json"
						}
					}
				},
				"url": {
					"raw": "http://localhost:9090/POST/user",
					"protocol": "http",
					"host": [
						"localhost"
					],
					"port": "9090",
					"path": [
						"POST",
						"user"
					]
				}
			},
			"response": []
		}
	]
}